<?xml version="1.0" standalone="no"?>
<!DOCTYPE svg PUBLIC "-//W3C//DTD SVG 20010904//EN"
 "http://www.w3.org/TR/2001/REC-SVG-20010904/DTD/svg10.dtd">
<svg version="1.0" xmlns="http://www.w3.org/2000/svg"
 width="38pt" height="20pt" viewBox="0 0 1353.000000 833.000000"
 preserveAspectRatio="xMidYMid meet">
<metadata>
DBi Services
</metadata>
<g transform="translate(0.000000,833.000000) scale(0.100000,-0.100000)"
fill="#FFF" stroke="none">
<path d="M9055 8324 c-22 -2 -89 -9 -150 -14 -172 -17 -403 -57 -600 -105
-1053 -258 -1949 -886 -2551 -1791 l-76 -114 -282 0 -282 0 -278 -1662 c-152
-915 -321 -1926 -375 -2248 l-98 -585 1316 -3 c900 -2 1351 0 1426 8 288 29
565 119 728 237 252 182 447 507 502 835 21 129 19 353 -5 468 -66 319 -272
555 -612 702 l-97 43 77 21 c409 114 707 377 822 727 16 49 26 67 39 67 17 0
222 -55 305 -82 21 -6 40 -17 43 -23 2 -7 -25 -187 -61 -401 -226 -1355 -427
-2553 -432 -2576 l-6 -28 650 -2 650 -3 50 305 c108 648 333 1984 335 1986 1
1 46 -46 99 -104 217 -239 409 -516 544 -783 29 -60 54 -114 54 -120 0 -16
-107 -190 -198 -323 -203 -294 -494 -624 -727 -824 -55 -47 -109 -94 -120
-105 -34 -34 72 41 173 122 305 243 588 553 827 905 l94 138 16 -38 c109 -252
215 -560 284 -825 69 -265 150 -700 182 -987 14 -120 23 -99 -126 -278 -158
-190 -354 -384 -555 -548 -52 -42 -15 -20 70 43 174 127 390 325 536 492 48
54 89 97 92 95 2 -3 10 -60 17 -128 l14 -123 -5 141 -5 142 109 144 c245 326
436 676 573 1052 l47 129 10 -49 c6 -27 28 -147 49 -267 21 -120 39 -214 41
-208 4 13 -21 217 -54 427 l-25 160 35 126 c114 417 160 763 161 1221 l0 278
28 -88 c90 -288 169 -615 222 -913 36 -202 44 -205 20 -10 -46 368 -124 723
-241 1095 -48 152 -61 213 -83 385 -30 230 -117 606 -206 895 -53 169 -126
377 -131 372 -2 -2 20 -90 50 -195 30 -105 75 -280 100 -389 46 -207 110 -565
104 -585 -2 -6 -15 15 -28 48 -44 111 -187 399 -264 534 -103 179 -243 387
-361 538 l-96 122 -19 119 c-33 202 -106 528 -109 486 -1 -5 10 -77 24 -160
13 -82 30 -202 38 -265 l13 -115 -155 155 c-168 167 -340 311 -516 429 -60 41
-112 76 -115 78 -6 5 29 34 175 144 66 50 125 96 130 101 29 28 -230 -119
-308 -175 l-49 -35 -181 93 c-204 105 -405 187 -579 237 -65 19 -120 37 -123
40 -9 8 213 65 380 98 269 52 262 50 155 44 -210 -11 -393 -38 -573 -84 l-108
-27 -88 18 c-48 10 -142 25 -207 34 -65 9 -132 18 -149 20 -194 28 -726 27
-905 -1 -53 -9 -35 1 95 50 238 89 505 160 790 211 253 45 253 45 110 40 -339
-13 -777 -112 -1123 -255 -386 -158 -706 -369 -1008 -662 l-121 -118 -527 0
c-499 0 -526 1 -517 18 5 9 53 68 106 131 610 713 1418 1218 2308 1441 337 85
612 120 977 125 271 4 387 -3 620 -36 1124 -158 2108 -772 2724 -1699 212
-320 349 -598 467 -950 156 -468 220 -879 214 -1380 -2 -212 -29 -579 -42
-567 -2 2 1 62 6 133 36 507 -33 1043 -198 1550 -335 1028 -1065 1885 -2011
2359 -362 182 -773 309 -1185 367 -214 30 -717 33 -915 5 -489 -69 -935 -218
-1334 -447 -177 -101 -218 -133 -111 -84 450 203 860 310 1360 353 127 11 508
6 645 -9 459 -48 877 -166 1288 -361 164 -77 276 -142 462 -264 225 -148 391
-285 596 -489 305 -306 509 -585 698 -956 216 -423 334 -806 403 -1300 24
-179 25 -718 0 -912 -144 -1137 -764 -2140 -1702 -2753 -307 -200 -586 -335
-918 -444 -133 -44 -377 -108 -467 -124 -17 -3 -11 -5 15 -6 65 -2 278 27 440
60 655 134 1229 427 1729 883 90 83 363 372 494 524 494 573 832 1291 956
2027 46 272 51 344 51 695 0 265 -4 364 -18 475 -111 857 -449 1614 -1004
2245 -528 601 -1253 1052 -2041 1270 -191 53 -482 109 -652 125 -36 4 -78 9
-95 11 -38 7 -606 13 -660 8z m-190 -1319 c158 -15 460 -60 498 -74 15 -6 1
-15 -64 -40 -269 -106 -566 -294 -773 -491 l-73 -69 -224 -2 c-243 -1 -388
-10 -601 -38 -90 -11 -157 -15 -195 -10 -32 4 -141 11 -242 15 l-185 7 78 74
c231 218 531 421 853 576 122 58 132 62 223 67 151 10 531 2 705 -15z m799
-151 c67 -20 191 -63 276 -97 155 -60 479 -217 499 -241 8 -10 -10 -30 -72
-84 -45 -38 -95 -84 -111 -101 l-30 -31 -533 0 -533 0 0 -22 c0 -46 -8 -48
-130 -23 -107 21 -275 46 -412 60 l-57 6 47 42 c158 140 381 291 575 387 151
75 304 138 336 139 13 1 78 -15 145 -35z m959 -453 c219 -148 437 -337 627
-544 l127 -139 7 -99 c16 -238 1 -658 -34 -914 -20 -151 -15 -148 -76 -50
-226 360 -517 691 -824 936 -49 40 -90 79 -90 86 0 8 23 149 50 313 28 164 50
301 50 304 0 3 -28 6 -62 6 l-63 0 85 85 c47 47 88 85 93 85 4 0 54 -31 110
-69z m-2261 -130 l27 -6 -55 -65 c-31 -36 -76 -93 -101 -127 l-45 -61 -62 45
c-115 85 -244 139 -436 184 -74 17 -74 17 -30 19 25 2 95 6 155 10 139 8 511
10 547 1z m320 -27 c109 -14 243 -38 406 -74 48 -11 53 -14 48 -34 -5 -21
-166 -968 -166 -978 0 -2 149 46 331 109 182 62 334 113 338 113 4 0 -8 -46
-28 -103 l-35 -103 -315 -109 c-174 -60 -319 -113 -323 -119 -4 -6 -8 -24 -8
-40 0 -24 -3 -28 -22 -23 -13 3 -86 21 -163 40 -77 19 -152 38 -166 41 -26 6
-26 6 -17 63 6 32 8 121 5 198 -10 273 -90 474 -269 678 -53 59 -58 70 -47 85
32 41 128 152 183 210 68 72 60 70 248 46z m2835 -706 c221 -293 413 -629 581
-1013 106 -244 111 -260 121 -425 12 -201 5 -603 -13 -795 -19 -188 -65 -473
-104 -635 l-27 -115 -18 85 c-125 590 -323 1163 -564 1630 -107 209 -99 163
-68 393 35 261 43 669 19 905 -4 34 -4 62 -2 62 3 0 37 -42 75 -92z m-1013
-104 c282 -251 534 -552 743 -888 71 -114 71 -79 6 -339 -50 -202 -127 -435
-209 -628 -56 -134 -190 -409 -199 -409 -3 0 -29 48 -59 108 -145 287 -347
571 -564 794 l-114 117 101 603 c56 332 101 610 101 619 0 12 -69 -8 -331 -99
-182 -62 -332 -112 -335 -109 -5 5 75 188 90 204 6 7 135 55 286 106 l275 95
59 -47 c33 -25 100 -82 150 -127z m-3511 -107 c132 -38 220 -111 253 -209 26
-79 17 -227 -19 -300 -62 -127 -203 -202 -423 -227 -43 -4 -211 -9 -371 -10
-235 -2 -293 1 -293 11 0 7 27 181 62 386 l62 374 335 -5 c271 -3 347 -7 394
-20z m4474 -1172 c231 -457 447 -1070 563 -1590 l22 -100 -55 -165 c-89 -265
-217 -553 -352 -791 -58 -101 -270 -425 -285 -434 -6 -4 -10 12 -10 43 0 27
-7 118 -15 203 -57 579 -192 1142 -383 1599 l-64 155 27 50 c218 405 336 703
430 1093 l28 113 24 -43 c14 -24 45 -83 70 -133z m-4732 -539 c88 -25 144 -54
199 -105 96 -90 140 -228 116 -362 -23 -125 -112 -248 -214 -295 -108 -49
-160 -54 -590 -54 -220 0 -401 2 -403 4 -3 3 120 759 132 815 l6 23 347 -5
c284 -3 358 -7 407 -21z"/>
<path d="M750 6289 c0 -12 -738 -4434 -745 -4467 l-6 -23 1138 4 c626 3 1156
7 1178 10 22 3 92 11 155 17 439 42 689 138 1040 399 474 353 807 952 894
1611 24 184 29 253 28 460 -2 676 -221 1228 -623 1566 -335 282 -605 382
-1153 424 -181 14 -1906 13 -1906 -1z m1825 -998 c174 -57 308 -169 382 -321
89 -180 121 -352 121 -650 0 -231 -20 -413 -63 -587 -81 -326 -262 -634 -449
-762 -166 -115 -375 -157 -794 -160 l-253 -2 6 23 c3 13 95 565 205 1228 110
663 203 1218 206 1233 l6 29 281 -4 c260 -4 288 -6 352 -27z"/>
<path d="M245 1257 c-119 -40 -175 -106 -175 -207 0 -98 39 -144 236 -278 65
-44 134 -96 152 -115 113 -117 37 -261 -138 -261 -87 0 -140 30 -208 119 l-23
29 -45 -24 c-24 -14 -44 -28 -44 -32 0 -21 118 -130 168 -155 51 -25 68 -28
157 -28 81 0 109 4 146 21 136 63 198 196 144 309 -27 57 -117 141 -219 205
-49 30 -112 73 -140 95 -88 70 -98 154 -24 207 68 48 169 32 247 -38 l51 -46
45 29 45 29 -48 46 c-66 65 -136 98 -220 104 -41 2 -83 -1 -107 -9z"/>
<path d="M1317 1264 c-3 -4 -7 -222 -7 -485 l0 -479 310 0 310 0 0 50 0 50
-250 0 -249 0 -3 185 -3 185 253 0 252 0 0 50 0 50 -250 0 -250 0 0 150 0 150
255 0 255 0 0 50 0 50 -308 0 c-170 0 -312 -3 -315 -6z"/>
<path d="M2580 786 l0 -486 55 0 55 0 0 225 0 225 29 0 c24 0 54 -29 222 -225
l194 -224 68 -1 c37 0 67 2 67 4 0 2 -86 102 -190 222 l-190 219 80 7 c85 7
175 40 218 81 58 54 85 162 62 247 -8 32 -27 60 -64 96 -76 77 -112 85 -383
91 l-223 6 0 -487z m429 373 c112 -25 165 -125 116 -219 -38 -74 -94 -93 -283
-94 l-152 -1 0 163 0 162 138 0 c75 0 157 -5 181 -11z"/>
<path d="M3860 1267 c0 -3 27 -60 59 -128 369 -770 402 -834 417 -834 12 0 82
134 250 479 129 264 234 481 234 483 0 2 -27 3 -60 3 l-60 0 -101 -207 c-56
-115 -137 -282 -182 -373 l-80 -165 -58 120 c-33 66 -113 233 -179 370 l-119
250 -61 3 c-33 2 -60 1 -60 -1z"/>
<path d="M5440 785 l0 -485 55 0 55 0 0 485 0 485 -55 0 -55 0 0 -485z"/>
<path d="M6685 1264 c-11 -2 -45 -9 -75 -15 -152 -30 -313 -148 -371 -274
-127 -270 21 -554 338 -652 45 -14 91 -18 208 -18 138 1 156 3 230 29 44 15
96 37 115 48 47 29 120 87 120 97 0 5 -18 20 -40 35 l-41 27 -42 -36 c-87 -74
-207 -115 -342 -115 -200 0 -364 89 -437 238 -30 60 -33 75 -33 152 0 71 5 95
27 142 73 156 237 249 443 249 142 -1 251 -38 344 -118 22 -18 42 -33 45 -33
14 0 76 46 76 57 0 36 -186 145 -295 173 -49 12 -230 21 -270 14z"/>
<path d="M7920 785 l0 -485 310 0 310 0 0 51 c0 46 -2 50 -22 49 -13 -1 -125
-2 -250 -1 l-227 1 -3 185 -3 185 253 0 252 0 0 50 0 50 -250 0 -250 0 0 150
0 150 255 0 256 0 -3 48 -3 47 -313 3 -312 2 0 -485z"/>
<path d="M9303 1252 c-102 -37 -163 -111 -163 -200 0 -94 39 -143 203 -253
199 -135 259 -204 242 -279 -20 -90 -145 -149 -253 -119 -35 9 -62 28 -110 76
l-63 63 -46 -23 -45 -23 34 -45 c105 -137 290 -186 446 -119 101 44 171 152
157 244 -16 96 -78 162 -274 290 -141 92 -171 125 -171 189 0 53 15 76 63 98
82 37 161 19 234 -53 l42 -41 46 30 46 30 -56 52 c-30 29 -75 61 -100 72 -66
29 -167 34 -232 11z"/>
</g>
</svg>
